 [MPI Info] Running MPI with            1  nodes
   __  __ _____    _    __  __  __ _ _   ____   
  |  \/  | ____|  / \  |  \/  |/ _(_) |_|___ \  
  | |\/| |  _|   / _ \ | |\/| | |_| | __| __) | 
  | |  | | |___ / ___ \| |  | |  _| | |_ / __/  
  |_|  |_|_____/_/   \_\_|  |_|_| |_|\__|_____| 
                                                
          ------- Version 1.05 -------          

              andrew.duff@stfc.ac.uk            
               Copyright 2018 STFC              
                                                
                    Authors:                    
                 Andrew I. Duff                 
              Marcel H. F. Sluiter              
                                                
             Contributing authors:              
       Prashanth Srinivasan, Thomas Mellan      
          Yuelei Bai, Blazej Grabowski          
                                                
      Please cite the following article if      
     you use this code in your publication:     

       "MEAMfit: A reference-free modified      
      embedded atom method (RF-MEAM) energy     
             and force-fitting code"            
      A. I. Duff, et al, Comp. Phys. Comm.      
               196 439-445 (2015)               

 vasprun1.xml              1-19       Free-Energy         1.00000      0.00000      0.00000
 (fitting to    19 atomic structures)

 No CUTOFFPEN in settings file, using CUTOFFPEN=T
 No CUTOFFPENDIST in settings file, using CUTOFFPENDIST=   0.1000000000
 No CUTOFFPENPREFACT in settings file, using CUTOFFPENPREFACT=     1000.0000000000
 No NUMDIFF in settings file, using NUMDIFF=false
 No DEBUG in settings file, using DEBUG=false
 No NEGELECDENS in settings file, using NEGELECDENS=false
 No ORTHOGELECDENS in settings file, using ORTHOGELECDENS=true
 No SEED in settings file, using time to seed random numbers.
 No OBJFUNC in settings file, using default value of 1 (standard variance weighted least squares).
 No MUT_PROB in settings file, using default (0.3).
 No NOPTFUNCSTORE in settings file, using default (10).
 No OPTFUNCCG in settings file, using default (OPTFUNCCG=10).
 No OPTFUNC_ERR in settings file, using default for energy fit (OPTFUNC_ERR=10^-14).
 No OPTFUNCCG_GA in settings file, using default (OPTFUNCCG=
 10*OPTFUNCCG 100.0000000000).
 No OPTDIFF in settings file, using default (=10^-10)
 No OPTACC in settings file, using default (=0.0005)
 No STOPTIME in settings file, using default (=168 hours=1 week)
 No HARDSTOP in settings file, using default (=.false.)
 No MAXFUNCEVALS in settings file, using default (=2000)
 POTFILEIN=potparas_MEAM (from settings)
 No HOLDCUTOFFS in settings file, using default (=.false.)
 No FIXPOTIN in settings file: allow input potential to optimize
 NOOPT=TRUE (from command-line)
 CUTOFF_MAX=   4.40000 (from settings file)
 No PLOT_SEPN_MIN in settings file, using default (PLOT_SEPN_MIN=0)
 No CUTOFF_MIN in settings file, using default (CUTOFF_MIN=   1.5000000000000000      )
 TYPE=MEAM (from settings file)
 No ENVDEPMEAMT in settings file, using default (=.FALSE.)
 calling initializestruc
 second pass:
 stopping afer third pass
 Completed structure initialization
 reading target data...
    Average value of energies, forces and stress tensor components:
         -639.95223227947372        0.0000000000000000        0.0000000000000000     
    Variances of energies, forces and stress tensor components:
          46.573560258455153        0.0000000000000000        0.0000000000000000     
    thi(1,1,l=0):
       Function: Sum over cubic terms
       Number paras to randomly generate: 0
       Cutoffs and coefficients positive.
    thi(1,1,l=1):
       Function: Sum over cubic terms
       Number paras to randomly generate: 0
       Cutoffs positive, coefficients positive or negative.
    thi(1,1,l=2):
       Function: Sum over cubic terms
       Number paras to randomly generate: 0
       Cutoffs positive, coefficients positive or negative.
    thi(1,1,l=3):
       Function: Sum over cubic terms
       Number paras to randomly generate: 0
       Cutoffs positive, coefficients positive or negative.
    thi(1,2,l=0):
       Function: Sum over cubic terms
       Number paras to randomly generate: 0
       Cutoffs and coefficients positive.
    thi(1,2,l=1):
       Function: Sum over cubic terms
       Number paras to randomly generate: 0
       Cutoffs positive, coefficients positive or negative.
    thi(1,2,l=2):
       Function: Sum over cubic terms
       Number paras to randomly generate: 0
       Cutoffs positive, coefficients positive or negative.
    thi(1,2,l=3):
       Function: Sum over cubic terms
       Number paras to randomly generate: 0
       Cutoffs positive, coefficients positive or negative.
    V(1,1):
       Function: Sum over cubic terms
       Number paras to randomly generate: 0
       Cutoffs positive, coefficients positive or negative.
    V(1,2):
       Function: Sum over cubic terms
       Number paras to randomly generate: 0
       Cutoffs positive, coefficients positive or negative.
    V(2,2):
       Function: Sum over cubic terms
       Number paras to randomly generate: 0
       Cutoffs positive, coefficients positive or negative.
 OK: checking for ANY(computeForces=.true.) is the same as checking for finite numbers of Frc or Str components.

 Calculation of properties (no optimization)
 -------------------------------------------

 final out:

 ---------------------------------------------------
 Objective function, without penalty=   7.7603678861222075E-002
 (En|Frc|Str contributions:    6.0223309727956862E-003   0.0000000000000000        0.0000000000000000      )
 (unscaled:   5.3291464946993541      )
 Objective function including penalty=   7.7603678861222075E-002
 (cutoff penalty:   0.0000000000000000      )
 ---------------------------------------------------

 rms error on energies=  0.54411735328875899     
 rms error on forces=   0.0000000000000000     
 rms error on stresses=   0.0000000000000000     

 Energies:

 Structure                     fitdata                    truedata
 ---------------------------------------------------------------------------------------
 vasprun1.xml_2                            31.922337715758431         32.330108379999956
 vasprun1.xml_3                            32.772887483116506         33.024689169999988
 vasprun1.xml_4                            32.931557212002758         32.886312060000023
 vasprun1.xml_5                            32.707197078450463         32.177311540000005
 vasprun1.xml_6                            31.726006117550810         30.845273170000041
 vasprun1.xml_7                            30.245333927218326         29.335221420000039
 vasprun1.xml_8                            28.981979733082198         28.191453379999984
 vasprun1.xml_9                            28.498201866922159         27.821119950000025
 vasprun1.xml_10                           28.688291995281816         28.007372209999971
 vasprun1.xml_11                           28.747778352346700         28.028208090000021
 vasprun1.xml_12                           28.504705043542003         27.899946239999963
 vasprun1.xml_13                           28.136801449765471         27.589057560000015
 vasprun1.xml_14                           27.781587351387998         27.332823950000034
 vasprun1.xml_15                           27.691352153343246         27.260680369999932
 vasprun1.xml_16                           27.683895516090843         27.447874080000020
 vasprun1.xml_17                           27.999120130587812         28.047824989999981
 vasprun1.xml_18                           28.777569087947427         28.954322859999934
 vasprun1.xml_19                           30.023366808947912         30.100151549999964

 ----------------------
 Optimization completed
 Total time taken 1000ms
 ----------------------

