 # sepn   no. sepns within range, per species (e.g. (1,1); (1,2); (2,2))
   1.87418     0.00000    0.00989    0.00000
   1.89739     0.00000    0.01978    0.00000
   1.92060     0.00000    0.02308    0.00000
   1.94381     0.00000    0.02308    0.00000
   1.96702     0.00000    0.03626    0.00000
   1.99023     0.00000    0.04615    0.00000
   2.01344     0.00000    0.07252    0.00000
   2.03666     0.00000    0.11538    0.00000
   2.05987     0.00000    0.12197    0.00000
   2.08308     0.00000    0.23735    0.00000
   2.10629     0.00000    0.24394    0.00000
   2.12950     0.00000    0.22746    0.00000
   2.15271     0.00000    0.29339    0.00000
   2.17593     0.00000    0.38569    0.00000
   2.19914     0.00000    0.32965    0.00000
   2.22235     0.00000    0.34284    0.00000
   2.24556     0.00000    0.36921    0.00000
   2.26877     0.00000    0.46810    0.00000
   2.29198     0.00000    0.44173    0.00330
   2.31520     0.00000    0.41206    0.00330
   2.33841     0.00000    0.38239    0.00000
   2.36162     0.00000    0.44832    0.00000
   2.38483     0.00000    0.43514    0.00000
   2.40804     0.00000    1.03510    0.00330
   2.43125     0.00000    0.43514    0.00000
   2.45447     0.00000    0.39228    0.00000
   2.47768     0.00000    0.32965    0.00000
   2.50089     0.00000    0.38569    0.00000
   2.52410     0.00000    0.29998    0.00000
   2.54731     0.00000    0.26372    0.00000
   2.57052     0.00000    0.38569    0.00330
   2.59374     0.00000    0.24724    0.00000
   2.61695     0.00000    0.26702    0.00659
   2.64016     0.00000    0.27031    0.00000
   2.66337     0.00000    0.22086    0.00330
   2.68658     0.00000    0.15164    0.00000
   2.70979     0.00000    0.18460    0.00000
   2.73301     0.00330    0.17801    0.00989
   2.75622     0.00000    0.15494    0.00659
   2.77943     0.03956    0.16482    0.00659
   2.80264     0.03626    0.13516    0.00330
   2.82585     0.05274    0.12197    0.03956
   2.84906     0.02967    0.15494    0.02308
   2.87228     0.03626    0.09889    0.02308
   2.89549     0.03956    0.06593    0.06263
   2.91870     0.02637    0.07582    0.05934
   2.94191     0.03626    0.11208    0.05934
   2.96512     0.01648    0.07582    0.08571
   2.98833     0.04615    0.03956    0.07582
   3.01154     0.04945    0.03296    0.11867
   3.03476     0.05934    0.02308    0.14175
   3.05797     0.10878    0.03296    0.15494
   3.08118     0.17801    0.03626    0.13186
   3.10439     0.14834    0.03296    0.14505
   3.12760     0.14834    0.02308    0.24724
   3.15081     0.18460    0.01648    0.27031
   3.17403     0.21757    0.03296    0.23735
   3.19724     0.30987    0.01319    0.25713
   3.22045     0.28679    0.01648    0.30987
   3.24366     0.36591    0.01648    0.36261
   3.26687     0.37580    0.00000    0.32965
   3.29008     0.31976    0.00659    0.39888
   3.31330     0.42854    0.00659    0.39228
   3.33651     0.45821    0.00330    0.33295
   3.35972     0.44173    0.00659    0.42854
   3.38293     0.36591    0.00989    0.40217
   3.40614     0.47469    0.00000    0.40547
   3.42935     1.17025    0.00989    0.94939
   3.45257     0.45821    0.00989    0.31317
   3.47578     0.39888    0.00659    0.35932
   3.49899     0.41206    0.01648    0.33295
   3.52220     0.48458    0.01319    0.39888
   3.54541     0.42854    0.02637    0.33295
   3.56862     0.41536    0.04945    0.34284
   3.59184     0.40547    0.02308    0.35272
   3.61505     0.33954    0.06593    0.32635
   3.63826     0.29009    0.05934    0.31976
   3.66147     0.30657    0.05274    0.25713
   3.68468     0.26702    0.07912    0.27031
   3.70789     0.27691    0.08901    0.24064
   3.73111     0.21427    0.10219    0.21427
   3.75432     0.16482    0.13186    0.16153
   3.77753     0.11538    0.14834    0.16153
   3.80074     0.12527    0.19779    0.18790
   3.82395     0.06263    0.18460    0.10878
   3.84716     0.04615    0.27361    0.12527
   3.87038     0.03626    0.25383    0.10549
   3.89359     0.03956    0.29998    0.09889
   3.91680     0.07912    0.29339    0.08571
   3.94001     0.02967    0.32306    0.07912
   3.96322     0.03626    0.35932    0.07582
   3.98643     0.00330    0.38239    0.03956
   4.00964     0.00989    0.38239    0.02967
   4.03286     0.00330    0.43184    0.03626
   4.05607     0.00989    0.43514    0.01978
   4.07928     0.01978    0.42854    0.00989
   4.10249     0.01978    0.48129    0.02308
   4.12570     0.00659    0.49118    0.02637
   4.14891     0.01319    0.50766    0.01319
   4.17213     0.01319    0.48458    0.01319
